{
  "meta": {
    "limit": 20,
    "next": "/rest/v1/alloweduserfield/?_offset=20&_limit=20",
    "offset": 0,
    "previous": null,
    "total_count": 124
  },
  "objects": [
    {
      "allow_multiple": false,
      "always_show": false,
      "choices": [],
      "created_at": "2016-10-19T01:39:35",
      "description": "",
      "display_name": "age",
      "field_choices": "",
      "field_default": "",
      "field_length": null,
      "field_regex": "",
      "field_type": "integer",
      "hidden": false,
      "name": "age",
      "order_index": 0,
      "required": false,
      "resource_uri": "/rest/v1/alloweduserfield/age/",
      "updated_at": "2016-10-19T01:39:35"
    },
    {
      "allow_multiple": false,
      "always_show": false,
      "choices": [],
      "created_at": "2017-08-21T00:50:53",
      "description": "",
      "display_name": "email",
      "field_choices": "",
      "field_default": "",
      "field_length": null,
      "field_regex": "",
      "field_type": "text",
      "hidden": false,
      "name": "email",
      "order_index": 0,
      "required": false,
      "resource_uri": "/rest/v1/alloweduserfield/email/",
      "updated_at": "2017-08-21T00:50:53"
    }
  ]
}
